<QucsStudio Schematic 4.3.1>
<Properties>
View=0,-131,1480,1150,0.846155,0,0
Grid=10,10,1
DataSet=*.dat
DataDisplay=*.dpl
OpenDisplay=1
showFrame=0
FrameText0=Title
FrameText1=Drawn By:
FrameText2=Date:
FrameText3=Revision:
</Properties>
<Symbol>
</Symbol>
<Components>
.SP SP1 1 100 380 0 63 0 0 "lin" 1 "1 GHz" 1 "10 GHz" 1 "19" 1 "no" 0 "1" 0 "2" 0 "none" 0
GND * 1 640 570 0 0 0 0
GND * 1 410 530 0 0 0 0
GND * 1 940 560 0 0 0 0
Pac P3 1 410 470 18 -26 0 0 "3" 1 "50 Ω" 1 "0 dBm" 0 "1 GHz" 0 "26.85" 0 "SUBCLICK" 0
Pac P4 1 1130 490 18 -26 0 0 "4" 1 "50 Ω" 1 "0 dBm" 0 "1 GHz" 0 "26.85" 0 "SUBCLICK" 0
GND * 1 1130 560 0 0 0 0
R R4 1 640 470 15 -26 0 1 "863 Ω" 1 "26.85" 0 "european" 0 "SMD0603" 0
R R5 1 940 460 15 -26 0 1 "863 Ω" 1 "26.85" 0 "european" 0 "SMD0603" 0
R R6 1 800 430 -26 15 0 0 "5.65 Ω" 1 "26.85" 0 "european" 0 "SMD0603" 0
GND * 1 410 50 0 0 0 0
Pac P1 1 410 -10 18 -26 0 0 "1" 1 "50 Ω" 1 "0 dBm" 0 "1 GHz" 0 "26.85" 0 "SUBCLICK" 0
Pac P2 1 1130 10 18 -26 0 0 "2" 1 "50 Ω" 1 "0 dBm" 0 "1 GHz" 0 "26.85" 0 "SUBCLICK" 0
GND * 1 1130 80 0 0 0 0
L L1 1 830 -90 -26 10 0 0 "1 nH" 1 "0" 0 "" 0 "SELF-WE-PD3S" 0
L L2 1 830 -30 -26 10 0 0 "1 nH" 1 "0" 0 "" 0 "SELF-WE-PD3S" 0
L L3 1 640 50 10 -26 0 1 "1 nH" 1 "0" 0 "" 0 "SELF-WE-PD3S" 0
L L4 1 940 40 10 -26 0 1 "1 nH" 1 "0" 0 "" 0 "SELF-WE-PD3S" 0
GND * 1 640 250 0 0 0 0
GND * 1 940 250 0 0 0 0
L L5 1 640 190 10 -26 0 1 "1 nH" 1 "0" 0 "" 0 "SELF-WE-PD3S" 0
L L6 1 940 180 10 -26 0 1 "1 nH" 1 "0" 0 "" 0 "SELF-WE-PD3S" 0
R R1 1 640 -10 15 -26 0 1 "820 Ω" 1 "26.85" 0 "european" 0 "SMD0603" 0
R R3 1 940 -20 15 -26 0 1 "820 Ω" 1 "26.85" 0 "european" 0 "SMD0603" 0
R R9 1 940 120 15 -26 0 1 "43 Ω" 1 "26.85" 0 "european" 0 "SMD0603" 0
R R8 1 640 130 15 -26 0 1 "43 Ω" 1 "26.85" 0 "european" 0 "SMD0603" 0
R R7 1 750 -90 -26 15 0 0 "10 Ω" 1 "26.85" 0 "european" 0 "SMD0603" 0
R R2 1 750 -30 -26 15 0 0 "13 Ω" 1 "26.85" 0 "european" 0 "SMD0603" 0
</Components>
<Wires>
830 430 940 430 "" 0 0 0 ""
940 490 940 560 "" 0 0 0 ""
640 430 770 430 "" 0 0 0 ""
640 430 640 440 "" 0 0 0 ""
640 500 640 570 "" 0 0 0 ""
410 500 410 530 "" 0 0 0 ""
410 430 640 430 "" 0 0 0 ""
410 430 410 440 "" 0 0 0 ""
1130 430 1130 460 "" 0 0 0 ""
1130 520 1130 560 "" 0 0 0 ""
940 430 1130 430 "" 0 0 0 ""
640 -50 640 -40 "" 0 0 0 ""
410 20 410 50 "" 0 0 0 ""
410 -50 640 -50 "" 0 0 0 ""
410 -50 410 -40 "" 0 0 0 ""
1130 -50 1130 -20 "" 0 0 0 ""
1130 40 1130 80 "" 0 0 0 ""
720 -90 720 -50 "" 0 0 0 ""
720 -50 720 -30 "" 0 0 0 ""
640 -50 720 -50 "" 0 0 0 ""
780 -90 800 -90 "" 0 0 0 ""
780 -30 800 -30 "" 0 0 0 ""
860 -90 860 -50 "" 0 0 0 ""
860 -50 860 -30 "" 0 0 0 ""
860 -50 940 -50 "" 0 0 0 ""
940 -50 1130 -50 "" 0 0 0 ""
640 80 640 100 "" 0 0 0 ""
640 220 640 250 "" 0 0 0 ""
940 70 940 90 "" 0 0 0 ""
940 210 940 250 "" 0 0 0 ""
</Wires>
<Diagrams>
<Rect 430 880 710 200 31 #c0c0c0 1 00 0 1e+09 3e+08 3.5e+09 1 -1.45845 0.2 -0.951188 1 0 0 0 315 0 225 "" "" "">
	<Legend 10 -100 0>
	<"dB(S[1,2])" "" #0000ff 0 3 0 0 0 0 "">
	  <Mkr 3e+09 540 -140 3 1 0 0 0 50>
	<"dB(S[3,4])" "" #ff0000 0 3 0 0 0 0 "">
</Rect>
</Diagrams>
<Paintings>
</Paintings>
