<QucsStudio Schematic 4.3.1>
<Properties>
View=0,53,1250,1120,1,0,0
Grid=10,10,1
DataSet=*.dat
DataDisplay=*.dpl
OpenDisplay=1
showFrame=0
FrameText0=Title
FrameText1=Drawn By:
FrameText2=Date:
FrameText3=Revision:
</Properties>
<Symbol>
</Symbol>
<Components>
GND * 1 410 260 0 0 0 0
Pac P1 1 410 200 18 -26 0 0 "1" 1 "50 Ω" 1 "0 dBm" 0 "1 GHz" 0 "26.85" 0 "SUBCLICK" 0
Pac P2 1 1130 220 18 -26 0 0 "2" 1 "50 Ω" 1 "0 dBm" 0 "1 GHz" 0 "26.85" 0 "SUBCLICK" 0
GND * 1 1130 290 0 0 0 0
.SP SP1 1 100 380 0 63 0 0 "lin" 1 "1 GHz" 1 "10 GHz" 1 "19" 1 "no" 0 "1" 0 "2" 0 "none" 0
GND * 1 640 570 0 0 0 0
GND * 1 410 530 0 0 0 0
GND * 1 940 560 0 0 0 0
Pac P3 1 410 470 18 -26 0 0 "3" 1 "50 Ω" 1 "0 dBm" 0 "1 GHz" 0 "26.85" 0 "SUBCLICK" 0
Pac P4 1 1130 490 18 -26 0 0 "4" 1 "50 Ω" 1 "0 dBm" 0 "1 GHz" 0 "26.85" 0 "SUBCLICK" 0
GND * 1 1130 560 0 0 0 0
R R4 1 640 470 15 -26 0 1 "220 Ω" 1 "26.85" 0 "european" 0 "SMD0603" 0
R R5 1 940 460 15 -26 0 1 "220 Ω" 1 "26.85" 0 "european" 0 "SMD0603" 0
R R6 1 800 430 -26 15 0 0 "23.5 Ω" 1 "26.85" 0 "european" 0 "SMD0603" 0
GND * 1 940 330 0 0 0 0
L L2 1 940 270 10 -26 0 1 "1 nH" 1 "0" 0 "" 0 "SELF-WE-PD3S" 0
GND * 1 570 330 0 0 0 0
L L1 1 570 280 10 -26 0 1 "1 nH" 1 "0" 0 "" 0 "SELF-WE-PD3S" 0
R R1 1 570 200 15 -26 0 1 "220 Ω" 1 "26.85" 0 "european" 0 "SMD0603" 0
L L3 1 730 160 -30 -67 0 0 "1 nH" 1 "0" 0 "" 0 "SELF-WE-PD3S" 0
L L4 1 860 160 -16 15 0 0 "1 nH" 1 "0" 0 "" 0 "SELF-WE-PD3S" 0
R R2 1 660 160 -51 -65 0 0 "22 Ω" 1 "26.85" 0 "european" 0 "SMD0603" 0
R R7 1 790 160 -21 26 0 0 "1.5 Ω" 1 "26.85" 0 "european" 0 "SMD0603" 0
R R3 1 940 190 15 -26 0 1 "220 Ω" 1 "26.85" 0 "european" 0 "SMD0603" 0
</Components>
<Wires>
410 230 410 260 "" 0 0 0 ""
410 160 570 160 "" 0 0 0 ""
410 160 410 170 "" 0 0 0 ""
1130 160 1130 190 "" 0 0 0 ""
1130 250 1130 290 "" 0 0 0 ""
830 430 940 430 "" 0 0 0 ""
940 490 940 560 "" 0 0 0 ""
640 430 770 430 "" 0 0 0 ""
640 430 640 440 "" 0 0 0 ""
640 500 640 570 "" 0 0 0 ""
410 500 410 530 "" 0 0 0 ""
410 430 640 430 "" 0 0 0 ""
410 430 410 440 "" 0 0 0 ""
1130 430 1130 460 "" 0 0 0 ""
1130 520 1130 560 "" 0 0 0 ""
940 430 1130 430 "" 0 0 0 ""
940 220 940 240 "" 0 0 0 ""
940 300 940 330 "" 0 0 0 ""
570 160 570 170 "" 0 0 0 ""
570 230 570 250 "" 0 0 0 ""
570 310 570 330 "" 0 0 0 ""
570 160 630 160 "" 0 0 0 ""
690 160 700 160 "" 0 0 0 ""
890 160 940 160 "" 0 0 0 ""
820 160 830 160 "" 0 0 0 ""
940 160 1130 160 "" 0 0 0 ""
</Wires>
<Diagrams>
<Rect 460 890 660 270 31 #c0c0c0 1 00 0 1e+09 3e+08 3.5e+09 1 -8.19864 1 -3.59638 1 0 0 0 315 0 225 "" "" "">
	<Legend 10 -100 0>
	<"dB(S[1,2])" "" #0000ff 0 3 0 0 0 0 "">
	  <Mkr 3e+09 530 -100 3 1 0 0 0 50>
	<"dB(S[3,4])" "" #ff0000 0 3 0 0 0 0 "">
</Rect>
</Diagrams>
<Paintings>
</Paintings>
