<QucsStudio Schematic 4.3.1>
<Properties>
View=0,-96,1250,1330,0.715976,0,0
Grid=10,10,1
DataSet=*.dat
DataDisplay=*.dpl
OpenDisplay=1
showFrame=0
FrameText0=Title
FrameText1=Drawn By:
FrameText2=Date:
FrameText3=Revision:
</Properties>
<Symbol>
</Symbol>
<Components>
.SP SP1 1 100 380 0 63 0 0 "lin" 1 "1 GHz" 1 "10 GHz" 1 "19" 1 "no" 0 "1" 0 "2" 0 "none" 0
GND * 1 640 570 0 0 0 0
GND * 1 410 530 0 0 0 0
GND * 1 940 560 0 0 0 0
Pac P3 1 410 470 18 -26 0 0 "3" 1 "50 Ω" 1 "0 dBm" 0 "1 GHz" 0 "26.85" 0 "SUBCLICK" 0
Pac P4 1 1130 490 18 -26 0 0 "4" 1 "50 Ω" 1 "0 dBm" 0 "1 GHz" 0 "26.85" 0 "SUBCLICK" 0
GND * 1 1130 560 0 0 0 0
R R4 1 640 470 15 -26 0 1 "440 Ω" 1 "26.85" 0 "european" 0 "SMD0603" 0
R R5 1 940 460 15 -26 0 1 "440 Ω" 1 "26.85" 0 "european" 0 "SMD0603" 0
R R6 1 800 430 -26 15 0 0 "11 Ω" 1 "26.85" 0 "european" 0 "SMD0603" 0
GND * 1 310 90 0 0 0 0
Pac P1 1 310 30 18 -26 0 0 "1" 1 "50 Ω" 1 "0 dBm" 0 "1 GHz" 0 "26.85" 0 "SUBCLICK" 0
Pac P2 1 1140 50 18 -26 0 0 "2" 1 "50 Ω" 1 "0 dBm" 0 "1 GHz" 0 "26.85" 0 "SUBCLICK" 0
GND * 1 1140 120 0 0 0 0
L L4 1 950 90 10 -26 0 1 "1 nH" 1 "0" 0 "" 0 "SELF-WE-PD3S" 0
L L5 1 540 100 10 -26 0 1 "1 nH" 1 "0" 0 "" 0 "SELF-WE-PD3S" 0
GND * 1 950 310 0 0 0 0
L L7 1 950 240 10 -26 0 1 "1 nH" 1 "0" 0 "" 0 "SELF-WE-PD3S" 0
GND * 1 540 310 0 0 0 0
L L6 1 540 260 10 -26 0 1 "1 nH" 1 "0" 0 "" 0 "SELF-WE-PD3S" 0
L L8 1 890 -10 -26 10 0 0 "1 nH" 1 "0" 0 "" 0 "SELF-WE-PD3S" 0
R R2 1 650 -10 -33 -66 0 0 "10 Ω" 1 "26.85" 0 "european" 0 "SMD0603" 0
R R9 1 810 -10 -26 15 0 0 "1.5 Ω" 1 "26.85" 0 "european" 0 "SMD0603" 0
R R1 1 540 30 15 -26 0 1 "220 Ω" 1 "26.85" 0 "european" 0 "SMD0603" 0
R R7 1 540 170 15 -26 0 1 "220 Ω" 1 "26.85" 0 "european" 0 "SMD0603" 0
R R8 1 950 170 15 -26 0 1 "220 Ω" 1 "26.85" 0 "european" 0 "SMD0603" 0
R R3 1 950 20 15 -26 0 1 "220 Ω" 1 "26.85" 0 "european" 0 "SMD0603" 0
L L1 1 730 -10 -26 10 0 0 "0.8 nH" 1 "0" 0 "" 0 "SELF-WE-PD3S" 0
</Components>
<Wires>
830 430 940 430 "" 0 0 0 ""
940 490 940 560 "" 0 0 0 ""
640 430 770 430 "" 0 0 0 ""
640 430 640 440 "" 0 0 0 ""
640 500 640 570 "" 0 0 0 ""
410 500 410 530 "" 0 0 0 ""
410 430 640 430 "" 0 0 0 ""
410 430 410 440 "" 0 0 0 ""
1130 430 1130 460 "" 0 0 0 ""
1130 520 1130 560 "" 0 0 0 ""
940 430 1130 430 "" 0 0 0 ""
540 -10 540 0 "" 0 0 0 ""
540 60 540 70 "" 0 0 0 ""
310 60 310 90 "" 0 0 0 ""
310 -10 540 -10 "" 0 0 0 ""
310 -10 310 0 "" 0 0 0 ""
950 50 950 60 "" 0 0 0 ""
1140 -10 1140 20 "" 0 0 0 ""
1140 80 1140 120 "" 0 0 0 ""
540 130 540 140 "" 0 0 0 ""
950 120 950 140 "" 0 0 0 ""
950 200 950 210 "" 0 0 0 ""
950 270 950 310 "" 0 0 0 ""
540 200 540 230 "" 0 0 0 ""
540 290 540 310 "" 0 0 0 ""
540 -10 620 -10 "" 0 0 0 ""
680 -10 700 -10 "" 0 0 0 ""
840 -10 860 -10 "" 0 0 0 ""
760 -10 780 -10 "" 0 0 0 ""
920 -10 950 -10 "" 0 0 0 ""
950 -10 1140 -10 "" 0 0 0 ""
</Wires>
<Diagrams>
<Rect 410 990 790 300 31 #c0c0c0 1 00 0 1e+09 5e+08 3.5e+09 1 -6.43235 1 -1.53007 1 0 0 0 315 0 225 "" "" "">
	<Legend 10 -100 0>
	<"dB(S[1,2])" "" #0000ff 0 3 0 0 0 0 "">
	  <Mkr 3e+09 610 -200 3 1 0 0 0 50>
	<"dB(S[3,4])" "" #ff0000 0 3 0 0 0 0 "">
</Rect>
</Diagrams>
<Paintings>
</Paintings>
