<QucsStudio Schematic 4.3.1>
<Properties>
View=0,91,1390,1250,1,0,0
Grid=10,10,1
DataSet=*.dat
DataDisplay=*.dpl
OpenDisplay=1
showFrame=0
FrameText0=Title
FrameText1=Drawn By:
FrameText2=Date:
FrameText3=Revision:
</Properties>
<Symbol>
</Symbol>
<Components>
GND * 1 410 260 0 0 0 0
Pac P1 1 410 200 18 -26 0 0 "1" 1 "50 Ω" 1 "0 dBm" 0 "1 GHz" 0 "26.85" 0 "SUBCLICK" 0
.SP SP1 1 100 380 0 63 0 0 "lin" 1 "1 GHz" 1 "10 GHz" 1 "19" 1 "no" 0 "1" 0 "2" 0 "none" 0
Pac P2 1 1270 220 18 -26 0 0 "2" 1 "50 Ω" 1 "0 dBm" 0 "1 GHz" 0 "26.85" 0 "SUBCLICK" 0
GND * 1 1270 290 0 0 0 0
GND * 1 640 630 0 0 0 0
GND * 1 410 590 0 0 0 0
GND * 1 940 620 0 0 0 0
Pac P3 1 410 530 18 -26 0 0 "3" 1 "50 Ω" 1 "0 dBm" 0 "1 GHz" 0 "26.85" 0 "SUBCLICK" 0
Pac P4 1 1130 550 18 -26 0 0 "4" 1 "50 Ω" 1 "0 dBm" 0 "1 GHz" 0 "26.85" 0 "SUBCLICK" 0
GND * 1 1130 620 0 0 0 0
R R4 1 640 530 15 -26 0 1 "118 Ω" 1 "26.85" 0 "european" 0 "SMD0603" 0
R R5 1 940 520 15 -26 0 1 "118 Ω" 1 "26.85" 0 "european" 0 "SMD0603" 0
R R6 1 800 490 -26 15 0 0 "53 Ω" 1 "26.85" 0 "european" 0 "SMD0603" 0
L L1 1 840 160 -26 10 0 0 "1 nH" 1 "0" 0 "" 0 "SELF-WE-PD3S" 0
L L2 1 1010 160 -26 10 0 0 "1 nH" 1 "0" 0 "" 0 "SELF-WE-PD3S" 0
L L3 1 640 280 10 -26 0 1 "1 nH" 1 "0" 0 "" 0 "SELF-WE-PD3S" 0
L L4 1 640 420 10 -26 0 1 "1 nH" 1 "0" 0 "" 0 "SELF-WE-PD3S" 0
GND * 1 640 450 0 0 0 0
GND * 1 1080 460 0 0 0 0
L L5 1 1080 260 10 -26 0 1 "1 nH" 1 "0" 0 "" 0 "SELF-WE-PD3S" 0
L L6 1 1080 400 10 -26 0 1 "1 nH" 1 "0" 0 "" 0 "SELF-WE-PD3S" 0
R R2 1 760 160 -26 15 0 0 "43 Ω" 1 "26.85" 0 "european" 0 "SMD0603" 0
R R7 1 930 160 -26 15 0 0 "13 Ω" 1 "26.85" 0 "european" 0 "SMD0603" 0
R R3 1 1080 190 15 -26 0 1 "43 Ω" 1 "26.85" 0 "european" 0 "SMD0603" 0
R R9 1 1080 330 15 -26 0 1 "75 Ω" 1 "26.85" 0 "european" 0 "SMD0603" 0
R R8 1 640 350 15 -26 0 1 "75 Ω" 1 "26.85" 0 "european" 0 "SMD0603" 0
R R1 1 640 200 15 -26 0 1 "43 Ω" 1 "26.85" 0 "european" 0 "SMD0603" 0
</Components>
<Wires>
640 160 640 170 "" 0 0 0 ""
410 230 410 260 "" 0 0 0 ""
410 160 640 160 "" 0 0 0 ""
410 160 410 170 "" 0 0 0 ""
1270 160 1270 190 "" 0 0 0 ""
1270 250 1270 290 "" 0 0 0 ""
830 490 940 490 "" 0 0 0 ""
940 550 940 620 "" 0 0 0 ""
640 490 770 490 "" 0 0 0 ""
640 490 640 500 "" 0 0 0 ""
640 560 640 630 "" 0 0 0 ""
410 560 410 590 "" 0 0 0 ""
410 490 640 490 "" 0 0 0 ""
410 490 410 500 "" 0 0 0 ""
1130 490 1130 520 "" 0 0 0 ""
1130 580 1130 620 "" 0 0 0 ""
940 490 1130 490 "" 0 0 0 ""
640 230 640 250 "" 0 0 0 ""
790 160 810 160 "" 0 0 0 ""
640 160 730 160 "" 0 0 0 ""
870 160 900 160 "" 0 0 0 ""
960 160 980 160 "" 0 0 0 ""
1040 160 1080 160 "" 0 0 0 ""
640 310 640 320 "" 0 0 0 ""
640 380 640 390 "" 0 0 0 ""
1080 220 1080 230 "" 0 0 0 ""
1080 290 1080 300 "" 0 0 0 ""
1080 360 1080 370 "" 0 0 0 ""
1080 430 1080 460 "" 0 0 0 ""
1080 160 1270 160 "" 0 0 0 ""
</Wires>
<Diagrams>
<Rect 460 980 660 240 31 #c0c0c0 1 00 0 1e+09 3e+08 3.5e+09 1 -9.5 0.5 -7.82242 1 0 0 0 315 0 225 "" "" "">
	<Legend 10 -100 0>
	<"dB(S[1,2])" "" #0000ff 0 3 0 0 0 0 "">
	  <Mkr 3e+09 490 -140 3 1 0 0 0 50>
	<"dB(S[3,4])" "" #ff0000 0 3 0 0 0 0 "">
</Rect>
</Diagrams>
<Paintings>
</Paintings>
