<QucsStudio Schematic 4.3.1>
<Properties>
View=0,24,1340,1080,0.846154,0,0
Grid=10,10,1
DataSet=*.dat
DataDisplay=*.dpl
OpenDisplay=1
showFrame=0
FrameText0=Title
FrameText1=Drawn By:
FrameText2=Date:
FrameText3=Revision:
</Properties>
<Symbol>
</Symbol>
<Components>
GND * 1 410 260 0 0 0 0
Pac P1 1 410 200 18 -26 0 0 "1" 1 "50 Ω" 1 "0 dBm" 0 "1 GHz" 0 "26.85" 0 "SUBCLICK" 0
.SP SP1 1 100 380 0 63 0 0 "lin" 1 "1 GHz" 1 "10 GHz" 1 "19" 1 "no" 0 "1" 0 "2" 0 "none" 0
GND * 1 640 570 0 0 0 0
GND * 1 410 530 0 0 0 0
GND * 1 940 560 0 0 0 0
Pac P3 1 410 470 18 -26 0 0 "3" 1 "50 Ω" 1 "0 dBm" 0 "1 GHz" 0 "26.85" 0 "SUBCLICK" 0
Pac P4 1 1130 490 18 -26 0 0 "4" 1 "50 Ω" 1 "0 dBm" 0 "1 GHz" 0 "26.85" 0 "SUBCLICK" 0
GND * 1 1130 560 0 0 0 0
R R5 1 940 460 15 -26 0 1 "68.7 Ω" 1 "26.85" 0 "european" 0 "SMD0603" 0
R R4 1 640 470 15 -26 0 1 "68.7 Ω" 1 "26.85" 0 "european" 0 "SMD0603" 0
R R6 1 800 430 -26 15 0 0 "152.7Ω" 1 "26.85" 0 "european" 0 "SMD0603" 0
GND * 1 590 360 0 0 0 0
L L1 1 540 280 10 -26 0 1 "1 nH" 1 "0" 0 "" 0 "SELF-WE-PD3S" 0
Pac P2 1 1220 220 18 -26 0 0 "2" 1 "50 Ω" 1 "0 dBm" 0 "1 GHz" 0 "26.85" 0 "SUBCLICK" 0
GND * 1 1220 290 0 0 0 0
L L2 1 640 270 10 -26 0 1 "1 nH" 1 "0" 0 "" 0 "SELF-WE-PD3S" 0
GND * 1 1070 370 0 0 0 0
L L3 1 1020 290 -78 -26 0 1 "1 nH" 1 "0" 0 "" 0 "SELF-WE-PD3S" 0
L L4 1 1120 280 10 -26 0 1 "1 nH" 1 "0" 0 "" 0 "SELF-WE-PD3S" 0
L L5 1 830 160 -22 -60 0 0 "1 nH" 1 "0" 0 "" 0 "SELF-WE-PD3S" 0
L L6 1 1000 160 -16 -65 0 0 "1 nH" 1 "0" 0 "" 0 "SELF-WE-PD3S" 0
R R1 1 540 220 15 -26 0 1 "75 Ω" 1 "26.85" 0 "european" 0 "SMD0603" 0
R R7 1 640 210 15 -26 0 1 "820 Ω" 1 "26.85" 0 "european" 0 "SMD0603" 0
R R8 1 1020 230 -85 -22 0 1 "75 Ω" 1 "26.85" 0 "european" 0 "SMD0603" 0
R R9 1 1120 220 15 -26 0 1 "820 Ω" 1 "26.85" 0 "european" 0 "SMD0603" 0
R R2 1 740 160 -36 -56 0 0 "150 Ω" 1 "26.85" 0 "european" 0 "SMD0603" 0
R R10 1 920 160 -36 -56 0 0 "2.7 Ω" 1 "26.85" 0 "european" 0 "SMD0603" 0
</Components>
<Wires>
410 230 410 260 "" 0 0 0 ""
830 430 940 430 "" 0 0 0 ""
940 490 940 560 "" 0 0 0 ""
640 430 770 430 "" 0 0 0 ""
640 430 640 440 "" 0 0 0 ""
640 500 640 570 "" 0 0 0 ""
410 500 410 530 "" 0 0 0 ""
410 430 640 430 "" 0 0 0 ""
410 430 410 440 "" 0 0 0 ""
1130 430 1130 460 "" 0 0 0 ""
1130 520 1130 560 "" 0 0 0 ""
940 430 1130 430 "" 0 0 0 ""
1220 160 1220 190 "" 0 0 0 ""
1220 250 1220 290 "" 0 0 0 ""
770 160 800 160 "" 0 0 0 ""
540 170 540 190 "" 0 0 0 ""
540 170 590 170 "" 0 0 0 ""
640 170 640 180 "" 0 0 0 ""
590 160 710 160 "" 0 0 0 ""
590 170 640 170 "" 0 0 0 ""
590 160 590 170 "" 0 0 0 ""
640 300 640 310 "" 0 0 0 ""
540 310 590 310 "" 0 0 0 ""
590 310 640 310 "" 0 0 0 ""
590 310 590 360 "" 0 0 0 ""
410 160 410 170 "" 0 0 0 ""
410 160 590 160 "" 0 0 0 ""
1020 180 1020 200 "" 0 0 0 ""
1120 180 1120 190 "" 0 0 0 ""
1020 180 1070 180 "" 0 0 0 ""
1120 310 1120 320 "" 0 0 0 ""
1020 320 1070 320 "" 0 0 0 ""
1070 320 1120 320 "" 0 0 0 ""
1070 320 1070 370 "" 0 0 0 ""
1070 160 1220 160 "" 0 0 0 ""
1070 180 1120 180 "" 0 0 0 ""
1070 160 1070 180 "" 0 0 0 ""
950 160 970 160 "" 0 0 0 ""
860 160 890 160 "" 0 0 0 ""
1030 160 1070 160 "" 0 0 0 ""
</Wires>
<Diagrams>
<Rect 340 920 850 280 31 #c0c0c0 1 00 0 1e+09 3e+08 3.5e+09 1 -16.0436 0.2 -15.1358 1 0 0 0 315 0 225 "" "" "">
	<Legend 10 -100 0>
	<"dB(S[1,2])" "" #0000ff 0 3 0 0 0 0 "">
	  <Mkr 3e+09 700 -140 3 1 0 0 0 50>
	<"dB(S[3,4])" "" #ff0000 0 3 0 0 0 0 "">
</Rect>
</Diagrams>
<Paintings>
</Paintings>
